  ___   _     ___  ____   _ _   _______ _____       _____ ________  ___
 / _ \ | |    |  \/  | | | | \ | |  _  \  _  |     /  __ \  _  |  \/  |
/ /_\ \| |    | .  . | | | |  \| | | | | | | |     | /  \/ | | | .  . |
|  _  || |    | |\/| | | | | . ` | | | | | | |     | |   | | | | |\/| |
| | | || |____| |  | | |_| | |\  | |/ /\ \_/ /  _  | \__/\ \_/ / |  | |
\_| |_/\_____/\_|  |_/\___/\_| \_/___/  \___/  (_)  \____/\___/\_|  |_/
                                                                                                                                    
 :: Almundo.com REST API:: (v1.0)